testbench.1737411726.4061537.vcd
$date
   Mon Jan 20 22:22:06 2025 UTC
$end
$version
    MyHDL 0.11.51
$end
$timescale
    1ns
$end

  $scope module testbench $end
    $var reg 4 ! addr $end
    $var reg 1 " clk $end
    $var reg 8 # data_in $end
    $var reg 8 $ data_out $end
    $var reg 1 % we $end
    $scope module SyncRAM0 $end
      $var reg 1 " clk $end
      $var reg 4 ! addr $end
      $var reg 8 # data_in $end
      $var reg 8 $ data_out $end
      $var reg 1 % we $end
      $scope module memory $end
        $var reg 8 & memory(0) $end
        $var reg 8 ' memory(1) $end
        $var reg 8 ( memory(2) $end
        $var reg 8 ) memory(3) $end
        $var reg 8 * memory(4) $end
        $var reg 8 + memory(5) $end
        $var reg 8 , memory(6) $end
        $var reg 8 - memory(7) $end
        $var reg 8 . memory(8) $end
        $var reg 8 / memory(9) $end
        $var reg 8 0 memory(10) $end
        $var reg 8 1 memory(11) $end
        $var reg 8 2 memory(12) $end
        $var reg 8 3 memory(13) $end
        $var reg 8 4 memory(14) $end
        $var reg 8 5 memory(15) $end
      $upscope $end
    $upscope $end
  $upscope $end

$enddefinitions $end

$dumpvars
b0000 !
0"
b00000000 #
b00000000 $
0%
b00000000 &
b00000000 '
b00000000 (
b00000000 )
b00000000 *
b00000000 +
b00000000 ,
b00000000 -
b00000000 .
b00000000 /
b00000000 0
b00000000 1
b00000000 2
b00000000 3
b00000000 4
b00000000 5
$end
1%
#5
1"
0%
#10
0"
#15
1"
b0001 !
b00000011 #
1%
#20
0"
#25
1"
b00000011 '
0%
#30
0"
#35
1"
b0010 !
b00000110 #
1%
b00000011 $
#40
0"
#45
1"
b00000110 (
b00000000 $
0%
#50
0"
#55
1"
b0011 !
b00001001 #
1%
b00000110 $
#60
0"
#65
1"
b00001001 )
b00000000 $
0%
#70
0"
#75
1"
b0100 !
b00001100 #
1%
b00001001 $
#80
0"
#85
1"
b00001100 *
b00000000 $
0%
#90
0"
#95
1"
b0101 !
b00001111 #
1%
b00001100 $
#100
0"
#105
1"
b00001111 +
b00000000 $
0%
#110
0"
#115
1"
b0110 !
b00010010 #
1%
b00001111 $
#120
0"
#125
1"
b00010010 ,
b00000000 $
0%
#130
0"
#135
1"
b0111 !
b00010101 #
1%
b00010010 $
#140
0"
#145
1"
b00010101 -
b00000000 $
0%
#150
0"
#155
1"
b1000 !
b00011000 #
1%
b00010101 $
#160
0"
#165
1"
b00011000 .
b00000000 $
0%
#170
0"
#175
1"
b1001 !
b00011011 #
1%
b00011000 $
#180
0"
#185
1"
b00011011 /
b00000000 $
0%
#190
0"
#195
1"
b1010 !
b00011110 #
1%
b00011011 $
#200
0"
#205
1"
b00011110 0
b00000000 $
0%
#210
0"
#215
1"
b1011 !
b00100001 #
1%
b00011110 $
#220
0"
#225
1"
b00100001 1
b00000000 $
0%
#230
0"
#235
1"
b1100 !
b00100100 #
1%
b00100001 $
#240
0"
#245
1"
b00100100 2
b00000000 $
0%
#250
0"
#255
1"
b1101 !
b00100111 #
1%
b00100100 $
#260
0"
#265
1"
b00100111 3
b00000000 $
0%
#270
0"
#275
1"
b1110 !
b00101010 #
1%
b00100111 $
#280
0"
#285
1"
b00101010 4
b00000000 $
0%
#290
0"
#295
1"
b1111 !
b00101101 #
1%
b00101010 $
#300
0"
#305
1"
b00101101 5
b00000000 $
0%
#310
0"
#315
1"
b0000 !
b00101101 $
